[gd_scene load_steps=4 format=2]

[ext_resource path="res://Scripts/Box.gd" type="Script" id=1]
[ext_resource path="res://Images/Box.png" type="Texture" id=2]

[sub_resource type="RectangleShape2D" id=1]

custom_solver_bias = 0.0
extents = Vector2( 31.284, 30.897 )

[node name="Box" type="Area2D"]

input_pickable = false
gravity_vec = Vector2( 0, 1 )
gravity = 98.0
linear_damp = 0.1
angular_damp = 1.0
audio_bus_override = false
audio_bus_name = "Master"
script = ExtResource( 1 )
_sections_unfolded = [ "Collision", "Transform", "Visibility", "Z Index", "collision" ]

[node name="Sprite" type="Sprite" parent="." index="0"]

texture = ExtResource( 2 )

[node name="CollisionShape2D" type="CollisionShape2D" parent="." index="1"]

visible = false
shape = SubResource( 1 )


